Simulation_Files/xsim_18280.backup.log
#-----------------------------------------------------------
# xsim v2017.4 (64-bit)
# SW Build 2086221 on Fri Dec 15 20:55:39 MST 2017
# IP Build 2085800 on Fri Dec 15 22:25:07 MST 2017
# Start of session at: Tue Apr 15 01:29:21 2025
# Process ID: 18280
# Current directory: C:/Users/alper/OneDrive/Masaüstü/ExampleSubmission_v2/Simulation_Files
# Command line: xsim.exe -mode tcl -source {xsim.dir/alusyssim/xsim_script.tcl}
# Log file: C:/Users/alper/OneDrive/Masaüstü/ExampleSubmission_v2/Simulation_Files/xsim.log
# Journal file: C:/Users/alper/OneDrive/Masaüstü/ExampleSubmission_v2/Simulation_Files\xsim.jou
#-----------------------------------------------------------
source xsim.dir/alusyssim/xsim_script.tcl
# xsim {alusyssim} -autoloadwcfg -runall
Vivado Simulator 2017.4
Time resolution is 1 ps
run -all
------------------------------------
ArithmeticLogicUnitSystem Simulation Started
[PASS] Test No: 1, Component: OutA, Actual Value: 0x77777777, Expected Value: 0x77777777
[PASS] Test No: 1, Component: OutB, Actual Value: 0x88888887, Expected Value: 0x88888887
[FAIL] Test No: 1, Component: ALUOut, Actual Value: 0xxxxxxxxx, Expected Value: 0xfffffffe
[PASS] Test No: 1, Component: Z, Actual Value: 0x00000000, Expected Value: 0x00000000
[PASS] Test No: 1, Component: C, Actual Value: 0x00000000, Expected Value: 0x00000000
[PASS] Test No: 1, Component: N, Actual Value: 0x00000000, Expected Value: 0x00000000
[PASS] Test No: 1, Component: O, Actual Value: 0x00000000, Expected Value: 0x00000000
[FAIL] Test No: 1, Component: MuxAOut, Actual Value: 0xxxxxxxxx, Expected Value: 0xfffffffe
[FAIL] Test No: 1, Component: MuxBOut, Actual Value: 0xxxxxxxxx, Expected Value: 0xfffffffe
[FAIL] Test No: 1, Component: MuxCOut, Actual Value: 0x000000xx, Expected Value: 0x000000fe
[PASS] Test No: 1, Component: MuxDOut, Actual Value: 0x77777777, Expected Value: 0x77777777
[PASS] Test No: 1, Component: R2, Actual Value: 0x00000000, Expected Value: 0x00000000
[PASS] Test No: 1, Component: S3, Actual Value: 0x00000000, Expected Value: 0x00000000
[PASS] Test No: 2, Component: OutA, Actual Value: 0x77777777, Expected Value: 0x77777777
[FAIL] Test No: 2, Component: OutB, Actual Value: 0xxxxxxxxx, Expected Value: 0x88888887
[PASS] Test No: 2, Component: ALUOut, Actual Value: 0xfffffffe, Expected Value: 0xfffffffe
[PASS] Test No: 2, Component: Z, Actual Value: 0x00000000, Expected Value: 0x00000000
[PASS] Test No: 2, Component: C, Actual Value: 0x00000000, Expected Value: 0x00000000
[PASS] Test No: 2, Component: N, Actual Value: 0x00000001, Expected Value: 0x00000001
[PASS] Test No: 2, Component: O, Actual Value: 0x00000000, Expected Value: 0x00000000
[PASS] Test No: 2, Component: MuxAOut, Actual Value: 0xfffffffe, Expected Value: 0xfffffffe
[PASS] Test No: 2, Component: MuxBOut, Actual Value: 0xfffffffe, Expected Value: 0xfffffffe
[PASS] Test No: 2, Component: MuxCOut, Actual Value: 0x000000fe, Expected Value: 0x000000fe
[PASS] Test No: 2, Component: MuxDOut, Actual Value: 0x77777777, Expected Value: 0x77777777
[FAIL] Test No: 2, Component: R2, Actual Value: 0x00000000, Expected Value: 0xfffffffe
[FAIL] Test No: 2, Component: S3, Actual Value: 0x00000000, Expected Value: 0xfffffffe
[FAIL] Test No: 2, Component: PC, Actual Value: 0x00000000, Expected Value: 0x0000fffe
[PASS] Test No: 3, Component: OutC, Actual Value: 0x00001254, Expected Value: 0x00001254
[PASS] Test No: 3, Component: Address, Actual Value: 0x00000023, Expected Value: 0x00000023
[PASS] Test No: 3, Component: Memout, Actual Value: 0x00000015, Expected Value: 0x00000015
[PASS] Test No: 3, Component: IROut, Actual Value: 0x00000000, Expected Value: 0x00000000
[PASS] Test No: 3, Component: DROut, Actual Value: 0x00000000, Expected Value: 0x00000000
[PASS] Test No: 4, Component: OutC, Actual Value: 0x00001254, Expected Value: 0x00001254
[PASS] Test No: 4, Component: Address, Actual Value: 0x00000023, Expected Value: 0x00000023
[PASS] Test No: 4, Component: Memout, Actual Value: 0x00000015, Expected Value: 0x00000015
[PASS] Test No: 4, Component: IROut, Actual Value: 0x00000015, Expected Value: 0x00000015
ArithmeticLogicUnitSystem Simulation Finished
8 Test Failed
28 Test Passed
------------------------------------
exit
INFO: [Common 17-206] Exiting xsim at Tue Apr 15 01:29:25 2025...
