Simulation_Files/xsim_11620.backup.log
#-----------------------------------------------------------
# xsim v2017.4 (64-bit)
# SW Build 2086221 on Fri Dec 15 20:55:39 MST 2017
# IP Build 2085800 on Fri Dec 15 22:25:07 MST 2017
# Start of session at: Tue Apr 15 01:47:34 2025
# Process ID: 11620
# Current directory: C:/Users/alper/OneDrive/Masaüstü/ExampleSubmission_v2/Simulation_Files
# Command line: xsim.exe -mode tcl -source {xsim.dir/alusim/xsim_script.tcl}
# Log file: C:/Users/alper/OneDrive/Masaüstü/ExampleSubmission_v2/Simulation_Files/xsim.log
# Journal file: C:/Users/alper/OneDrive/Masaüstü/ExampleSubmission_v2/Simulation_Files\xsim.jou
#-----------------------------------------------------------
source xsim.dir/alusim/xsim_script.tcl
# xsim {alusim} -autoloadwcfg -runall
Vivado Simulator 2017.4
Time resolution is 1 ps
run -all
------------------------------------
ArithmeticLogicUnit Simulation Started
[FAIL] Test No: 1, Component: ALUOut, Actual Value: 0xxxxxxxxx, Expected Value: 0x55555555
[PASS] Test No: 1, Component: Z, Actual Value: 0x00000001, Expected Value: 0x00000001
[PASS] Test No: 1, Component: C, Actual Value: 0x00000001, Expected Value: 0x00000001
[PASS] Test No: 1, Component: N, Actual Value: 0x00000001, Expected Value: 0x00000001
[PASS] Test No: 1, Component: O, Actual Value: 0x00000001, Expected Value: 0x00000001
[PASS] Test No: 2, Component: ALUOut, Actual Value: 0x55555555, Expected Value: 0x55555555
[PASS] Test No: 2, Component: Z, Actual Value: 0x00000000, Expected Value: 0x00000000
[FAIL] Test No: 2, Component: C, Actual Value: 0x00000001, Expected Value: 0x00000000
[PASS] Test No: 2, Component: N, Actual Value: 0x00000000, Expected Value: 0x00000000
[FAIL] Test No: 2, Component: O, Actual Value: 0x00000001, Expected Value: 0x00000000
[PASS] Test No: 3, Component: ALUOut, Actual Value: 0x00000000, Expected Value: 0x00000000
[PASS] Test No: 3, Component: Z, Actual Value: 0x00000001, Expected Value: 0x00000001
[PASS] Test No: 3, Component: C, Actual Value: 0x00000001, Expected Value: 0x00000001
[PASS] Test No: 3, Component: N, Actual Value: 0x00000000, Expected Value: 0x00000000
[PASS] Test No: 3, Component: O, Actual Value: 0x00000000, Expected Value: 0x00000000
ArithmeticLogicUnit Simulation Finished
3 Test Failed
12 Test Passed
------------------------------------
exit
INFO: [Common 17-206] Exiting xsim at Tue Apr 15 01:47:37 2025...
